…
This data structure clearly violates the principles of tidy data - this is messy data. For example, column header (e.g. `FLOW1`) contains the day number - a value. HYDAT is structured like this for very reasonable historical reasons. It does, however, significantly limit the analyst's ability to efficiently extract hydrometric data. For example, given the current data structure, it is not possible to only extract from the 15th of one month to the 15th of the next. Rather a query would need to be made on all data from the relevant months and then further processing would need to occur.

`tidyhydat` makes this process simpler. If we want the same data as the example above, we can use the `DLY_FLOWS()` function in `tidyhydat` to query the same data in HYDAT but return a much tidier data structure. It is now very simple to extract data between say March 15, 1992 and April 15, 1992. We just need to supply these arguments to `DLY_FLOWS()` after loading the package itself:

``` r
library(tidyhydat)
DLY_FLOWS(hydat_path = "H:/Hydat.sqlite3",
          STATION_NUMBER = "08MF005",
          PROV_TERR_STATE_LOC = "BC",
          start_date = "1992-03-15",
          end_date = "1992-04-15")
```

    ## # A tibble: 32 x 5
    ##    STATION_NUMBER       Date Parameter Value Symbol
    ##             <chr>     <date>     <chr> <dbl>  <chr>
    ##  1        08MF005 1992-03-15      FLOW  1630   <NA>
    ##  2        08MF005 1992-03-16      FLOW  1730   <NA>
    ##  3        08MF005 1992-03-17      FLOW  1900   <NA>
    ##  4        08MF005 1992-03-18      FLOW  2040   <NA>
    ##  5        08MF005 1992-03-19      FLOW  2140   <NA>
    ##  6        08MF005 1992-03-20      FLOW  2180   <NA>
    ##  7        08MF005 1992-03-21      FLOW  2170   <NA>
    ##  8        08MF005 1992-03-22      FLOW  2150   <NA>
    ##  9        08MF005 1992-03-23      FLOW  2130   <NA>
    ## 10        08MF005 1992-03-24      FLOW  2120   <NA>
    ## # ... with 22 more rows
…
Now these values can be accessed within an R session without giving away your secrets (Using `Sys.getenv()`). Just remember to call them directly and don't assign them to a variable.

MSC datamart - `download_realtime_dd()`
---------------------------------------

To download real-time data using the datamart we can use approximately the same conventions discussed above. Using `download_realtime_dd()` we can easily select specific stations by supplying a station of interest. Note that in contrast to `download_realtime_ws()` but similar to `DLY_FLOWS()`, we need to supply both the station and the province that we are interested in:

``` r
download_realtime_dd(STATION_NUMBER = "08LG006", PROV_TERR_STATE_LOC = "BC")
```

    ## # A tibble: 17,340 x 7
    ##    STATION_NUMBER                Date Parameter Value Grade Symbol  Code
    ##             <chr>              <dttm>     <chr> <dbl> <chr>  <chr> <chr>
    ##  1        08LG006 2017-07-22 08:00:00      FLOW  9.07  <NA>   <NA>     1
    ##  2        08LG006 2017-07-22 08:05:00      FLOW  9.11  <NA>   <NA>     1
    ##  3        08LG006 2017-07-22 08:10:00      FLOW  9.11  <NA>   <NA>     1
    ##  4        08LG006 2017-07-22 08:15:00      FLOW  9.11  <NA>   <NA>     1
    ##  5        08LG006 2017-07-22 08:20:00      FLOW  9.11  <NA>   <NA>     1
    ##  6        08LG006 2017-07-22 08:25:00      FLOW  9.11  <NA>   <NA>     1
    ##  7        08LG006 2017-07-22 08:30:00      FLOW  9.07  <NA>   <NA>     1
    ##  8        08LG006 2017-07-22 08:35:00      FLOW  9.11  <NA>   <NA>     1
    ##  9        08LG006 2017-07-22 08:40:00      FLOW  9.07  <NA>   <NA>     1
    ## 10        08LG006 2017-07-22 08:45:00      FLOW  9.11  <NA>   <NA>     1
    ## # ... with 17,330 more rows
…
