…
Working with SQL tables in dplyr is much like working with regular data frames, except no data is actually read from the database until necessary. Because some of these tables are large (particularly those containing the actual data), you will want to `filter()` the tables before you `collect()` them (the `collect()` operation loads them into memory as a `data.frame`).


``` r
tbl(src, "STN_OPERATION_SCHEDULE") |>
  filter(STATION_NUMBER == "05AA008") |>
  collect()
#> # A tibble: 103 × 5
#>    STATION_NUMBER DATA_TYPE  YEAR MONTH_FROM MONTH_TO
#>    <chr>          <chr>     <int> <chr>      <chr>   
#>  1 05AA008        H          2012 JAN        DEC     
#>  2 05AA008        H          2013 JAN        DEC     
#>  3 05AA008        H          2014 JAN        DEC     
#>  4 05AA008        H          2015 JAN        DEC     
#>  5 05AA008        H          2016 JAN        DEC     
#>  6 05AA008        H          2017 JAN        DEC     
#>  7 05AA008        H          2018 JAN        DEC     
#>  8 05AA008        H          2019 JAN        DEC     
#>  9 05AA008        H          2020 JAN        DEC     
#> 10 05AA008        Q          1910 <NA>       <NA>    
#> # ℹ 93 more rows
```
…
