…
```r
hy_daily_flows(station_number = "08LA001")
```

```
##   Queried from version of HYDAT released on 2022-07-21
##    Observations:                      31,351
##    Measurement flags:                 6,166
##    Parameter(s):                      Flow
##    Date range:                        1914-01-01 to 2021-12-31 
##    Station(s) returned:               1
##    Stations requested but not returned: 
##     All stations returned.
## # A tibble: 31,351 × 5
##    STATION_NUMBER Date       Parameter Value Symbol
##    <chr>          <date>     <chr>     <dbl> <chr> 
##  1 08LA001        1914-01-01 Flow        144 <NA>  
##  2 08LA001        1914-01-02 Flow        144 <NA>  
##  3 08LA001        1914-01-03 Flow        144 <NA>  
##  4 08LA001        1914-01-04 Flow        140 <NA>  
##  5 08LA001        1914-01-05 Flow        140 <NA>  
##  6 08LA001        1914-01-06 Flow        136 <NA>  
##  7 08LA001        1914-01-07 Flow        136 <NA>  
##  8 08LA001        1914-01-08 Flow        140 <NA>  
##  9 08LA001        1914-01-09 Flow        140 <NA>  
## 10 08LA001        1914-01-10 Flow        140 <NA>  
## # … with 31,341 more rows
## # ℹ Use `print(n = ...)` to see more rows
```
…
```r
hy_daily_flows(station_number = PEI_stns)
```

```
##   Queried from version of HYDAT released on 2022-07-21
##    Observations:                      114,605
##    Measurement flags:                 20,524
##    Parameter(s):                      Flow
##    Date range:                        1961-08-01 to 2020-12-31 
##    Station(s) returned:               9
##    Stations requested but not returned: 
##     All stations returned.
## # A tibble: 114,605 × 5
##    STATION_NUMBER Date       Parameter Value Symbol
##    <chr>          <date>     <chr>     <dbl> <chr> 
##  1 01CA003        1961-08-01 Flow         NA <NA>  
##  2 01CB002        1961-08-01 Flow         NA <NA>  
##  3 01CA003        1961-08-02 Flow         NA <NA>  
##  4 01CB002        1961-08-02 Flow         NA <NA>  
##  5 01CA003        1961-08-03 Flow         NA <NA>  
##  6 01CB002        1961-08-03 Flow         NA <NA>  
##  7 01CA003        1961-08-04 Flow         NA <NA>  
##  8 01CB002        1961-08-04 Flow         NA <NA>  
##  9 01CA003        1961-08-05 Flow         NA <NA>  
## 10 01CB002        1961-08-05 Flow         NA <NA>  
## # … with 114,595 more rows
## # ℹ Use `print(n = ...)` to see more rows
```
…
```
##   Queried from version of HYDAT released on 2022-07-21
##    Observations:                      86,056
##    Measurement flags:                 26,218
##    Parameter(s):                      Flow
##    Date range:                        1918-08-01 to 2021-12-31 
##    Station(s) returned:               7
##    Stations requested but not returned: 
##     All stations returned.
## # A tibble: 86,056 × 5
##    STATION_NUMBER Date       Parameter Value Symbol
##    <chr>          <date>     <chr>     <dbl> <chr> 
##  1 01AK001        1918-08-01 Flow      NA    <NA>  
##  2 01AK001        1918-08-02 Flow      NA    <NA>  
##  3 01AK001        1918-08-03 Flow      NA    <NA>  
##  4 01AK001        1918-08-04 Flow      NA    <NA>  
##  5 01AK001        1918-08-05 Flow      NA    <NA>  
##  6 01AK001        1918-08-06 Flow      NA    <NA>  
##  7 01AK001        1918-08-07 Flow       1.78 <NA>  
##  8 01AK001        1918-08-08 Flow       1.78 <NA>  
##  9 01AK001        1918-08-09 Flow       1.5  <NA>  
## 10 01AK001        1918-08-10 Flow       1.78 <NA>  
## # … with 86,046 more rows
## # ℹ Use `print(n = ...)` to see more rows
```
…
```r
search_stn_number("08MF")
```

```
## # A tibble: 53 × 5
##    STATION_NUMBER STATION_NAME                           PROV_TERR_STATE_LOC LATIT…¹ LONGI…²
##    <chr>          <chr>                                  <chr>                 <dbl>   <dbl>
##  1 08MF005        FRASER RIVER AT HOPE                   BC                     49.4   -121.
##  2 08MF035        FRASER RIVER NEAR AGASSIZ              BC                     49.2   -122.
##  3 08MF038        FRASER RIVER AT CANNOR                 BC                     49.1   -122.
##  4 08MF040        FRASER RIVER ABOVE TEXAS CREEK         BC                     50.6   -122.
##  5 08MF062        COQUIHALLA RIVER BELOW NEEDLE CREEK    BC                     49.5   -121.
##  6 08MF065        NAHATLATCH RIVER BELOW TACHEWANA CREEK BC                     50.0   -122.
##  7 08MF068        COQUIHALLA RIVER ABOVE ALEXANDER CREEK BC                     49.4   -121.
##  8 08MF072        FRASER RIVER AT LAIDLAW                BC                     49.3   -122.
##  9 08MF073        FRASER RIVER AT HARRISON MILLS         BC                     49.2   -122.
## 10 08MF001        ANDERSON RIVER NEAR BOSTON BAR         BC                     49.8   -121.
## # … with 43 more rows, and abbreviated variable names ¹​LATITUDE, ²​LONGITUDE
## # ℹ Use `print(n = ...)` to see more rows
```
…
