…
This data structure clearly violates the principles of tidy data - this is messy data. For example, column headers (e.g. `FLOW1`) contain the day number - a value. HYDAT is structured like this for very reasonable historical reasons. It does, however, significantly limit a hydrologists ability to efficiently use hydrometric data. 

`tidyhydat` aims to make interacting with WSC data sources simpler. I have applied tidy data principles so that users can avoid thinking about the basic data process of importing and tidying and focus on the iterative process of visualizing and modelling their data [@wickham2016r]. After loading `tidyhydat` itself, we simply need to supply a `station_number` argument to the `hy_daily_flows()` function:


```r
library(tidyhydat)
hy_daily_flows(station_number = "08MF005")
```

```
## # A tibble: 37,561 x 5
##    STATION_NUMBER       Date Parameter Value Symbol
##             <chr>     <date>     <chr> <dbl>  <chr>
##  1        08MF005 1912-03-01      FLOW   538   <NA>
##  2        08MF005 1912-03-02      FLOW   538   <NA>
##  3        08MF005 1912-03-03      FLOW   538   <NA>
##  4        08MF005 1912-03-04      FLOW   538   <NA>
##  5        08MF005 1912-03-05      FLOW   538   <NA>
##  6        08MF005 1912-03-06      FLOW   538   <NA>
##  7        08MF005 1912-03-07      FLOW   479   <NA>
##  8        08MF005 1912-03-08      FLOW   479   <NA>
##  9        08MF005 1912-03-09      FLOW   459   <NA>
## 10        08MF005 1912-03-10      FLOW   459   <NA>
## # ... with 37,551 more rows
```
…
