tidyhydat
…
This data structure clearly violates the principles of tidy data - this is messy data. For example, column header (e.g. FLOW1) contains the day number - a value. HYDAT is structured like this for very reasonable historical reasons. It does, however, significantly limit the analyst’s ability to efficiently extract hydrometric data. For example, given the current data structure, it is not possible to only extract from the 15th of one month to the 15th of the next. Rather a query would need to be made on all data from the relevant months and then further processing would need to occur.

tidyhydat makes this process simpler. If we want the same data as the example above, we can use the DLY_FLOWS() function in tidyhydat to query the same data in HYDAT but return a much tidier data structure. It is now very simple to extract data between say March 15, 1992 and April 15, 1992. We just need to supply these arguments to DLY_FLOWS() after loading the package itself:

library(tidyhydat)
DLY_FLOWS(hydat_path = "H:/Hydat.sqlite3",
          STATION_NUMBER = "08MF005",
          start_date = "1992-03-15",
          end_date = "1992-04-15")

## # A tibble: 32 x 5
##    STATION_NUMBER       Date Parameter Value Symbol
##             <chr>     <date>     <chr> <dbl>  <chr>
##  1        08MF005 1992-03-15      FLOW  1630   <NA>
##  2        08MF005 1992-03-16      FLOW  1730   <NA>
##  3        08MF005 1992-03-17      FLOW  1900   <NA>
##  4        08MF005 1992-03-18      FLOW  2040   <NA>
##  5        08MF005 1992-03-19      FLOW  2140   <NA>
##  6        08MF005 1992-03-20      FLOW  2180   <NA>
##  7        08MF005 1992-03-21      FLOW  2170   <NA>
##  8        08MF005 1992-03-22      FLOW  2150   <NA>
##  9        08MF005 1992-03-23      FLOW  2130   <NA>
## 10        08MF005 1992-03-24      FLOW  2120   <NA>
## # ... with 22 more rows
…
This opens your .Renviron file which may already contain your hydat_path. This is also where you enter the credentials given to you by ECCC. The code that you paste into the .Renviron file might look like something like this:

## Credentials for ECCC web service
WS_USRNM = "here is the username that ECCC gave you"
WS_PWD = "here is the password that ECCC gave you"

Now these values can be accessed within an R session without giving away your secrets (Using Sys.getenv()). Just remember to call them directly and don’t assign them to a variable.

MSC datamart - download_realtime_dd()

To download real-time data using the datamart we can use approximately the same conventions discussed above. Using download_realtime_dd() we can easily select specific stations by supplying a station of interest:

download_realtime_dd(STATION_NUMBER = "08LG006")

## # A tibble: 17,508 x 8
##    STATION_NUMBER PROV_TERR_STATE_LOC                Date Parameter Value
##             <chr>               <chr>              <dttm>     <chr> <dbl>
##  1        08LG006                  BC 2017-07-30 08:00:00      FLOW  7.41
##  2        08LG006                  BC 2017-07-30 08:05:00      FLOW  7.41
##  3        08LG006                  BC 2017-07-30 08:10:00      FLOW  7.41
##  4        08LG006                  BC 2017-07-30 08:15:00      FLOW  7.38
##  5        08LG006                  BC 2017-07-30 08:20:00      FLOW  7.38
##  6        08LG006                  BC 2017-07-30 08:25:00      FLOW  7.38
##  7        08LG006                  BC 2017-07-30 08:30:00      FLOW  7.38
##  8        08LG006                  BC 2017-07-30 08:35:00      FLOW  7.38
##  9        08LG006                  BC 2017-07-30 08:40:00      FLOW  7.38
## 10        08LG006                  BC 2017-07-30 08:45:00      FLOW  7.38
## # ... with 17,498 more rows, and 3 more variables: Grade <chr>,
## #   Symbol <chr>, Code <chr>

Another option is to provide simply the province as an argument and download all stations from that province:

download_realtime_dd(PROV_TERR_STATE_LOC = "PE")

## # A tibble: 77,824 x 8
##    STATION_NUMBER PROV_TERR_STATE_LOC                Date Parameter Value
##             <chr>               <chr>              <dttm>     <chr> <dbl>
##  1        01CD005                  PE 2017-07-30 04:00:00      FLOW    NA
##  2        01CD005                  PE 2017-07-30 04:05:00      FLOW    NA
##  3        01CD005                  PE 2017-07-30 04:10:00      FLOW    NA
##  4        01CD005                  PE 2017-07-30 04:15:00      FLOW    NA
##  5        01CD005                  PE 2017-07-30 04:20:00      FLOW    NA
##  6        01CD005                  PE 2017-07-30 04:25:00      FLOW    NA
##  7        01CD005                  PE 2017-07-30 04:30:00      FLOW    NA
##  8        01CD005                  PE 2017-07-30 04:35:00      FLOW    NA
##  9        01CD005                  PE 2017-07-30 04:40:00      FLOW    NA
## 10        01CD005                  PE 2017-07-30 04:45:00      FLOW    NA
## # ... with 77,814 more rows, and 3 more variables: Grade <chr>,
## #   Symbol <chr>, Code <chr>
…
