tidyhydat: An Introduction
…
To use many of the functions in the tidyhydat package you will need to download a version of the HYDAT database, Environment and Climate Change Canada’s database of historical hydrometric data then tell R where to find the database. Conveniently tidyhydat does all this for you via:

download_hydat()

This downloads the most recent version of HYDAT and then saves it in a location on your computer where tidyhydat’s function will look for it. Do be patient though as this takes a long time! To see where HYDAT was saved you can run hy_dir(). Now that you have HYDAT downloaded and ready to go, you are all set to begin some hydrologic analysis.

Usage

Most functions in tidyhydat follow a common argument structure. We will use the hy_daily_flows() function for the following examples though the same approach applies to most functions in the package (See ls("package:tidyhydat") for a list of exported objects). Much of the functionality of tidyhydat originates with the choice of hydrometric stations that you are interested in. A user will often find themselves creating vectors of station numbers. There are several ways to do this.

The simplest case is if you would like to extract only station. You can supply this directly to the station_number argument:

hy_daily_flows(station_number = "08LA001")

## # A tibble: 29,159 x 5
##    STATION_NUMBER       Date Parameter Value Symbol
##             <chr>     <date>     <chr> <dbl>  <chr>
##  1        08LA001 1914-01-01      FLOW   144   <NA>
##  2        08LA001 1914-01-02      FLOW   144   <NA>
##  3        08LA001 1914-01-03      FLOW   144   <NA>
##  4        08LA001 1914-01-04      FLOW   140   <NA>
##  5        08LA001 1914-01-05      FLOW   140   <NA>
##  6        08LA001 1914-01-06      FLOW   136   <NA>
##  7        08LA001 1914-01-07      FLOW   136   <NA>
##  8        08LA001 1914-01-08      FLOW   140   <NA>
##  9        08LA001 1914-01-09      FLOW   140   <NA>
## 10        08LA001 1914-01-10      FLOW   140   <NA>
## # ... with 29,149 more rows

Another method is to use hy_stations() to generate your vector which is then given the station_number argument. For example, we could take a subset for only those active stations within Prince Edward Island (Province code:PE) and then create vector for hy_daily_flows():

PEI_stns <- hy_stations() %>%
  filter(HYD_STATUS == "ACTIVE") %>%
  filter(PROV_TERR_STATE_LOC == "PE") %>%
  pull(STATION_NUMBER)

PEI_stns

## [1] "01CA003" "01CB002" "01CB004" "01CC002" "01CC005" "01CC010" "01CD005"

hy_daily_flows(station_number = PEI_stns)

## # A tibble: 98,562 x 5
##    STATION_NUMBER       Date Parameter Value Symbol
##             <chr>     <date>     <chr> <dbl>  <chr>
##  1        01CA003 1961-08-01      FLOW    NA   <NA>
##  2        01CB002 1961-08-01      FLOW    NA   <NA>
##  3        01CA003 1961-08-02      FLOW    NA   <NA>
##  4        01CB002 1961-08-02      FLOW    NA   <NA>
##  5        01CA003 1961-08-03      FLOW    NA   <NA>
##  6        01CB002 1961-08-03      FLOW    NA   <NA>
##  7        01CA003 1961-08-04      FLOW    NA   <NA>
##  8        01CB002 1961-08-04      FLOW    NA   <NA>
##  9        01CA003 1961-08-05      FLOW    NA   <NA>
## 10        01CB002 1961-08-05      FLOW    NA   <NA>
## # ... with 98,552 more rows

We can also merge our station choice and data extraction into one unified pipe which accomplishes a single goal. For example if for some reason we wanted all the stations in Canada that had the name “Canada” in them we unify that selection and data extraction process into a single pipe:

search_stn_name("canada") %>%
  pull(STATION_NUMBER) %>%
  hy_daily_flows()

## # A tibble: 76,679 x 5
##    STATION_NUMBER       Date Parameter Value Symbol
##             <chr>     <date>     <chr> <dbl>  <chr>
##  1        01AK001 1918-08-01      FLOW    NA   <NA>
##  2        01AK001 1918-08-02      FLOW    NA   <NA>
##  3        01AK001 1918-08-03      FLOW    NA   <NA>
##  4        01AK001 1918-08-04      FLOW    NA   <NA>
##  5        01AK001 1918-08-05      FLOW    NA   <NA>
##  6        01AK001 1918-08-06      FLOW    NA   <NA>
##  7        01AK001 1918-08-07      FLOW  1.78   <NA>
##  8        01AK001 1918-08-08      FLOW  1.78   <NA>
##  9        01AK001 1918-08-09      FLOW  1.50   <NA>
## 10        01AK001 1918-08-10      FLOW  1.78   <NA>
## # ... with 76,669 more rows
…
Similarly, search_stn_number() can be useful if you are interested in all stations from the 08MF sub-sub-drainage:

search_stn_number("08MF")

## # A tibble: 51 x 5
##    STATION_NUMBER                           STATION_NAME
##             <chr>                                  <chr>
##  1        08MF005                   FRASER RIVER AT HOPE
##  2        08MF035              FRASER RIVER NEAR AGASSIZ
##  3        08MF038                 FRASER RIVER AT CANNOR
##  4        08MF040         FRASER RIVER ABOVE TEXAS CREEK
##  5        08MF062    COQUIHALLA RIVER BELOW NEEDLE CREEK
##  6        08MF065 NAHATLATCH RIVER BELOW TACHEWANA CREEK
##  7        08MF068 COQUIHALLA RIVER ABOVE ALEXANDER CREEK
##  8        08MF072                FRASER RIVER AT LAIDLAW
##  9        08MF073         FRASER RIVER AT HARRISON MILLS
## 10        08MF001         ANDERSON RIVER NEAR BOSTON BAR
## # ... with 41 more rows, and 3 more variables: PROV_TERR_STATE_LOC <chr>,
## #   LATITUDE <dbl>, LONGITUDE <dbl>
…
