Two examples of using tidyhydat
…
download_hydat()

This should be the only instance where you will need to interact directly with HYDAT. Each tidyhydat function prefixed with hy will automatically know where to look for HYDAT saving you the trouble. When using tidyhydat, often your first task is to find the station(s) that you are interested in. Because we are interested in the longest record we can extract that information with hy_stn_data_range() and then feed that information to hy_daily_flows() like this:

longest_record_data <- hy_stn_data_range() %>%
  filter(RECORD_LENGTH == max(RECORD_LENGTH)) %>%
  pull(STATION_NUMBER) %>%
  hy_daily_flows()

Let’s break this down line by line to understand how tidyhydat uses tidy tools. First we are interested in getting data on record length:

hy_stn_data_range()

## # A tibble: 11,839 x 6
##    STATION_NUMBER DATA_TYPE SED_DATA_TYPE YEAR_FROM YEAR_TO RECORD_LENGTH
##             <chr>     <chr>         <chr>     <int>   <int>         <int>
##  1        01AA002         Q            NA      1967    1977            11
##  2        01AD001         Q            NA      1918    1997            80
##  3        01AD002         Q            NA      1926    2014            89
##  4        01AD003         H            NA      2011    2016             6
##  5        01AD003         Q            NA      1951    2016            66
##  6        01AD004         H            NA      1980    2016            32
##  7        01AD004         Q            NA      1968    1979            12
##  8        01AD005         H            NA      1966    1974             9
##  9        01AD008         H            NA      1972    1974             3
## 10        01AD009         H            NA      1973    1982            10
## # ... with 11,829 more rows
…
