…
This data structure clearly violates the principles of tidy data - this is messy data. For example, column headers (e.g. `FLOW1`) contain the day number - a value. HYDAT is structured like this for very reasonable historical reasons. It does, however, significantly limit a hydrologists ability to efficiently use hydrometric data. For example, given the current data structure, it is not possible to only extract from the 15th of one month to the 15th of the next. Rather a query would need to be made on all data from the relevant months and then further processing would need to occur.

`tidyhydat` aims to make interacting with HYDAT simpler. For example, we can use the `DLY_FLOWS()` function in `tidyhydat` to query the same data as above but return a much tidier data structure. It is now very simple to extract data between say March 15, 1992 and April 15, 1992. We just need to supply these arguments to `DLY_FLOWS()` after loading the package itself:


```r
library(tidyhydat)
DLY_FLOWS(hydat_path = "H:/Hydat.sqlite3",
          STATION_NUMBER = "08MF005",
          start_date = "1992-03-15",
          end_date = "1992-04-15")
```

```
## # A tibble: 32 x 5
##    STATION_NUMBER       Date Parameter Value Symbol
##             <chr>     <date>     <chr> <dbl>  <chr>
##  1        08MF005 1992-03-15      FLOW  1630   <NA>
##  2        08MF005 1992-03-16      FLOW  1730   <NA>
##  3        08MF005 1992-03-17      FLOW  1900   <NA>
##  4        08MF005 1992-03-18      FLOW  2040   <NA>
##  5        08MF005 1992-03-19      FLOW  2140   <NA>
##  6        08MF005 1992-03-20      FLOW  2180   <NA>
##  7        08MF005 1992-03-21      FLOW  2170   <NA>
##  8        08MF005 1992-03-22      FLOW  2150   <NA>
##  9        08MF005 1992-03-23      FLOW  2130   <NA>
## 10        08MF005 1992-03-24      FLOW  2120   <NA>
## # ... with 22 more rows
```
…
